top.vcd
$date
	Mon Jan 11 18:53:08 2010
$end
$version
	Icarus Verilog
$end
$timescale
	1s
$end
$scope module top $end
$var wire 1 ! led $end
$var reg 1 " clk $end
$var reg 1 # reset $end
$scope module g1 $end
$var wire 1 $ clk $end
$var wire 8 % do [7:0] $end
$var wire 1 ! led $end
$var wire 128 & m_out [0:127] $end
$var wire 1 ' m_out_val $end
$var wire 1 ( md5_ready $end
$var wire 1 ) reset $end
$var reg 11 * a [10:0] $end
$var reg 8 + di [7:0] $end
$var reg 48 , j [47:0] $end
$var reg 1 - led_reg $end
$var reg 128 . m_in [0:127] $end
$var reg 128 / m_in_buff [0:127] $end
$var reg 1 0 m_in_valid $end
$var reg 8 1 m_in_w [0:7] $end
$var reg 4 2 state [3:0] $end
$var reg 1 3 we $end
$scope module bram1 $end
$var wire 11 4 a [10:0] $end
$var wire 1 $ clk $end
$var wire 8 5 di [7:0] $end
$var wire 8 6 do [7:0] $end
$var wire 1 7 we $end
$var reg 11 8 read_a [10:0] $end
$upscope $end
$scope module md5 $end
$var wire 1 $ clk $end
$var wire 128 9 msg_in [0:127] $end
$var wire 1 : msg_in_valid $end
$var wire 8 ; msg_in_width [0:7] $end
$var wire 128 < msg_output [0:127] $end
$var wire 32 = next_a [0:31] $end
$var wire 1 ( ready $end
$var wire 1 ) reset $end
$var reg 32 > A [0:31] $end
$var reg 32 ? AA [0:31] $end
$var reg 32 @ B [0:31] $end
$var reg 32 A BB [0:31] $end
$var reg 32 B C [0:31] $end
$var reg 32 C CC [0:31] $end
$var reg 32 D D [0:31] $end
$var reg 32 E DD [0:31] $end
$var reg 32 F a [0:31] $end
$var reg 88 G ascii_state [88:1] $end
$var reg 32 H b [0:31] $end
$var reg 32 I c [0:31] $end
$var reg 8 J current_state [7:0] $end
$var reg 32 K d [0:31] $end
$var reg 32 L m [0:31] $end
$var reg 512 M msg_appended [0:511] $end
$var reg 1 N msg_out_valid $end
$var reg 32 O next_A [0:31] $end
$var reg 32 P next_B [0:31] $end
$var reg 32 Q next_C [0:31] $end
$var reg 32 R next_D [0:31] $end
$var reg 8 S next_state [7:0] $end
$var reg 4 T phase [3:0] $end
$var reg 2 U round [0:1] $end
$var reg 32 V s [0:31] $end
$var reg 32 W t [0:31] $end
$scope module ROUND $end
$var wire 32 X a [31:0] $end
$var wire 32 Y b [31:0] $end
$var wire 32 Z c [31:0] $end
$var wire 32 [ d [31:0] $end
$var wire 32 \ m [31:0] $end
$var wire 2 ] round [1:0] $end
$var wire 32 ^ s [31:0] $end
$var wire 32 _ t [31:0] $end
$var reg 32 ` add_result [31:0] $end
$var reg 32 a next_a [31:0] $end
$var reg 32 b rotate_result1 [31:0] $end
$var reg 32 c rotate_result2 [31:0] $end
$scope function F $end
$var reg 32 d F [31:0] $end
$var reg 32 e x [31:0] $end
$var reg 32 f y [31:0] $end
$var reg 32 g z [31:0] $end
$upscope $end
$scope function G $end
$var reg 32 h G [31:0] $end
$var reg 32 i x [31:0] $end
$var reg 32 j y [31:0] $end
$var reg 32 k z [31:0] $end
$upscope $end
$scope function H $end
$var reg 32 l H [31:0] $end
$var reg 32 m x [31:0] $end
$var reg 32 n y [31:0] $end
$var reg 32 o z [31:0] $end
$upscope $end
$scope function I $end
$var reg 32 p I [31:0] $end
$var reg 32 q x [31:0] $end
$var reg 32 r y [31:0] $end
$var reg 32 s z [31:0] $end
$upscope $end
$upscope $end
$upscope $end
$upscope $end
$upscope $end
$enddefinitions $end
#0
$dumpvars
bx s
bx r
bx q
bx p
bx o
bx n
bx m
bx l
bx k
bx j
bx i
bx h
b0 g
b0 f
b0 e
b0 d
b0 c
b0 b
b0 a
b0 `
b0 _
b0 ^
b0 ]
b0 \
b0 [
b0 Z
b0 Y
b0 X
b0 W
b0 V
b0 U
bx T
bx S
bx R
bx Q
bx P
bx O
xN
bx M
b0 L
b0 K
bx J
b0 I
b0 H
bx G
b0 F
bx E
bx D
bx C
bx B
bx A
bx @
bx ?
bx >
b0 =
bx <
b1000000 ;
0:
b0 9
bx 8
07
bx 6
b0 5
b0 4
03
b0 2
b1000000 1
00
b0 /
b0 .
0-
b0 ,
b0 +
b0 *
1)
x(
x'
bx &
bx %
0$
1#
0"
0!
$end
#1
b1001000110100010101100111100010011010101111001101111011111111111011011100101110101001100001110110010101000011001000010000 &
b1001000110100010101100111100010011010101111001101111011111111111011011100101110101001100001110110010101000011001000010000 <
b1001001010001000100110001000101 G
b1 S
b10000001100100101010001110110 R
b10011000101110101101110011111110 Q
b11101111110011011010101110001001 P
b1100111010001010010001100000001 O
1(
b0 8
b110000 %
b110000 6
b10000001100100101010001110110 D
b10011000101110101101110011111110 B
b11101111110011011010101110001001 @
b1100111010001010010001100000001 >
b0 T
b1 J
1"
1$
#2
0"
0$
#3
b0 M
b0 E
b0 C
b0 A
b0 ?
0N
0'
1"
1$
#4
0"
0$
#5
1"
1$
#6
0"
0$
#7
1"
1$
#8
0"
0$
#9
1"
1$
#10
0"
0$
0#
0)
#11
b1 T
b1 2
1"
1$
#12
0"
0$
#13
b10 T
b10 2
b11000000000000000000000000000000000000000000000000000000000000 /
1"
1$
#14
0"
0$
#15
b11 T
b11 2
b11000000110000000000000000000000000000000000000000000000000000 /
1"
1$
#16
0"
0$
#17
b100 T
b100 2
b11000000110000001100000000000000000000000000000000000000000000 /
1"
1$
#18
0"
0$
#19
b101 T
b101 2
b11000000110000001100000011000000000000000000000000000000000000 /
1"
1$
#20
0"
0$
#21
b110 T
b110 2
b11000000110000001100000011000000110000000000000000000000000000 /
1"
1$
#22
0"
0$
#23
b111 T
b111 2
b11000000110000001100000011000000110000001100000000000000000000 /
1"
1$
#24
0"
0$
#25
b1000 T
b1000 2
b11000000110000001100000011000000110000001100000011000000000000 /
1"
1$
#26
0"
0$
#27
b1001 T
b1 ,
b1001 2
b11000000110000001100000011000000110000001100000011000000110000 /
1"
1$
#28
0"
0$
#29
b10 S
b1010 T
b1 *
b1 4
b0 2
b11000000110000001100000011000000110000001100000011000000110000 .
b11000000110000001100000011000000110000001100000011000000110000 9
10
1:
1"
1$
#30
0"
0$
#31
b10111101001101111111111100001100 a
b10111101001101111111111100001100 =
b11 c
b11001101011010100101001110000000 b
b111100110101101010010100111 `
b10011000101110101101110011111110 d
b10000001100100101010001110110 g
b10011000101110101101110011111110 f
b11101111110011011010101110001001 e
0(
b10111101001101111111111100001100 O
b11010111011010101010010001111000 W
b11010111011010101010010001111000 _
b111 V
b111 ^
b110000001100000011000000110000 L
b110000001100000011000000110000 \
b10000001100100101010001110110 K
b10000001100100101010001110110 [
b10011000101110101101110011111110 I
b10011000101110101101110011111110 Z
b11101111110011011010101110001001 H
b11101111110011011010101110001001 Y
b1100111010001010010001100000001 F
b1100111010001010010001100000001 X
b10100100100111101010101010011100100010000110001 G
b10 J
b0 T
b10000000000000000000000000000000000000000000000000000000000000000000000000000000000000000000000000000000000000000000000000000000000000000000000000000000000000000000000000000000000000000000000000000000000000000000000000000000000000000000000000000000000000000000000000000000000000000000000000000000000000000000000000000000000000000000000000000000000000000000000000000000000000000000000100000000011000000110000001100000011000000110000001100000011000000110000 M
b10000001100100101010001110110 E
b10011000101110101101110011111110 C
b11101111110011011010101110001001 A
b1100111010001010010001100000001 ?
b1 8
b110001 %
b110001 6
00
0:
b1 2
b0 *
b0 4
1"
1$
#32
0"
0$
#33
b111011101101110110110001110111 a
b111011101101110110110001110111 =
b110101101011 c
b1111110011111110110000000000000 b
b11010110101101111110011111110110 `
b10101101100011011010101111111010 d
b10011000101110101101110011111110 g
b11101111110011011010101110001001 f
b10111101001101111111111100001100 e
b1100111111110011011110111101100010011010101111001101111011111111111011011100101110101001100001110110010101000011001000010000 &
b1100111111110011011110111101100010011010101111001101111011111111111011011100101110101001100001110110010101000011001000010000 <
b111011101101110110110001110111 R
b11101000110001111011011101010110 W
b11101000110001111011011101010110 _
b1100 V
b1100 ^
b110000001100000011000000110000 L
b110000001100000011000000110000 \
b10011000101110101101110011111110 K
b10011000101110101101110011111110 [
b11101111110011011010101110001001 I
b11101111110011011010101110001001 Z
b10111101001101111111111100001100 H
b10111101001101111111111100001100 Y
b10000001100100101010001110110 F
b10000001100100101010001110110 X
b0 8
b110000 %
b110000 6
b10111101001101111111111100001100 >
b1 T
b10 2
b11000100110000001100000011000000110000001100000011000000110000 /
1"
1$
#34
0"
0$
#35
b10110111100000101110000100101101 a
b10110111100000101110000100101101 =
b10111010010110110 c
b1111011110010100000000000000000 b
b10111010010110110011110111100101 `
b11111101011111111110111110001100 d
b11101111110011011010101110001001 g
b10111101001101111111111100001100 f
b111011101101110110110001110111 e
b10110111100000101110000100101101 Q
b100100001000000111000011011011 W
b100100001000000111000011011011 _
b10001 V
b10001 ^
b10000000 L
b10000000 \
b11101111110011011010101110001001 K
b11101111110011011010101110001001 [
b10111101001101111111111100001100 I
b10111101001101111111111100001100 Z
b111011101101110110110001110111 H
b111011101101110110110001110111 Y
b10011000101110101101110011111110 F
b10011000101110101101110011111110 X
b1100111111110011011110111101100010011010101111001101111011111111111011011100101110101001100001110111011011001011011100111011 &
b1100111111110011011110111101100010011010101111001101111011111111111011011100101110101001100001110111011011001011011100111011 <
b10 T
b111011101101110110110001110111 D
b11 2
b11000100110000001100000011000000110000001100000011000000110000 /
1"
1$
#36
0"
0$
#37
b11011110101111100011000111101011 a
b11011110101111100011000111101011 =
b1110110101000010111110 c
b100111000000000000000000000000 b
b11101101010000101111100010011100 `
b111011101101110111111000100101 d
b10111101001101111111111100001100 g
b111011101101110110110001110111 f
b10110111100000101110000100101101 e
b1100111111110011011110111101100010011010101111001101111011110010110111100001100000101011011101110111011011001011011100111011 &
b1100111111110011011110111101100010011010101111001101111011110010110111100001100000101011011101110111011011001011011100111011 <
b11011110101111100011000111101011 P
b11000001101111011100111011101110 W
b11000001101111011100111011101110 _
b10110 V
b10110 ^
b0 L
b0 \
b10111101001101111111111100001100 K
b10111101001101111111111100001100 [
b111011101101110110110001110111 I
b111011101101110110110001110111 Z
b10110111100000101110000100101101 H
b10110111100000101110000100101101 Y
b11101111110011011010101110001001 F
b11101111110011011010101110001001 X
b10110111100000101110000100101101 B
b11 T
b100 2
b11000100110000001100000011000000110000001100000011000000110000 /
1"
1$
#38
0"
0$
#39
b11111010011111000010111000100000 a
b11111010011111000010111000100000 =
b110101 c
b11011101111011111110000000000 b
b1101010001101110111101111111000 `
b10110111100000110110110100111101 d
b111011101101110110110001110111 g
b10110111100000101110000100101101 f
b11011110101111100011000111101011 e
b11111010011111000010111000100000 O
b11110101011111000000111110101111 W
b11110101011111000000111110101111 _
b111 V
b111 ^
b111011101101110110110001110111 K
b111011101101110110110001110111 [
b10110111100000101110000100101101 I
b10110111100000101110000100101101 Z
b11011110101111100011000111101011 H
b11011110101111100011000111101011 Y
b10111101001101111111111100001100 F
b10111101001101111111111100001100 X
b1100111111110011011110111101111010110011000110111110110111100010110111100001100000101011011101110111011011001011011100111011 &
b1100111111110011011110111101111010110011000110111110110111100010110111100001100000101011011101110111011011001011011100111011 <
b100 T
b11011110101111100011000111101011 @
b101 2
b11000100110000001100000011000000110000001100000011000000110000 /
1"
1$
#40
0"
0$
#41
b11011011101110010001010001001111 a
b11011011101110010001010001001111 =
b11000101111 c
b11100001001111001110000000000000 b
b1100010111111100001001111001110 `
b11011111101111101110000100101101 d
b10110111100000101110000100101101 g
b11011110101111100011000111101011 f
b11111010011111000010111000100000 e
b100000001011100111110011111010111010110011000110111110110111100010110111100001100000101011011101110111011011001011011100111011 &
b100000001011100111110011111010111010110011000110111110110111100010110111100001100000101011011101110111011011001011011100111011 <
b11011011101110010001010001001111 R
b1000111100001111100011000101010 W
b1000111100001111100011000101010 _
b1100 V
b1100 ^
b10110111100000101110000100101101 K
b10110111100000101110000100101101 [
b11011110101111100011000111101011 I
b11011110101111100011000111101011 Z
b11111010011111000010111000100000 H
b11111010011111000010111000100000 Y
b111011101101110110110001110111 F
b111011101101110110110001110111 X
b11111010011111000010111000100000 >
b101 T
b110 2
b11000100110000001100000011000000110000001100000011000000110000 /
1"
1$
#42
0"
0$
#43
b1110101011110011001000000110001 a
b1110101011110011001000000110001 =
b111101111100010 c
b10011001110000000000000000000000 b
b111101111100010100110011100000 `
b11011110001111100010010110100000 d
b11011110101111100011000111101011 g
b11111010011111000010111000100000 f
b11011011101110010001010001001111 e
b1110101011110011001000000110001 Q
b10101000001100000100011000010011 W
b10101000001100000100011000010011 _
b10001 V
b10001 ^
b11011110101111100011000111101011 K
b11011110101111100011000111101011 [
b11111010011111000010111000100000 I
b11111010011111000010111000100000 Z
b11011011101110010001010001001111 H
b11011011101110010001010001001111 Y
b10110111100000101110000100101101 F
b10110111100000101110000100101101 X
b100000001011100111110011111010111010110011000110111110110111100010110111100001100000101011011101001111000101001011100111011011 &
b100000001011100111110011111010111010110011000110111110110111100010110111100001100000101011011101001111000101001011100111011011 <
b110 T
b11011011101110010001010001001111 D
b111 2
b11000100110000001100000011000000110000001100000011000000110000 /
1"
1$
#44
0"
0$
#45
b10110000111001110110000010110010 a
b10110000111001110110000010110010 =
b1011011101000010000001 c
b111011010000000000000000000000 b
b10110111010000100000010011101101 `
b11011011001111010011111000000001 d
b11111010011111000010111000100000 g
b11011011101110010001010001001111 f
b1110101011110011001000000110001 e
b100000001011100111110011111010111010110011000110111110110111100011000110010000011110010111010101001111000101001011100111011011 &
b100000001011100111110011111010111010110011000110111110110111100011000110010000011110010111010101001111000101001011100111011011 <
b10110000111001110110000010110010 P
b11111101010001101001010100000001 W
b11111101010001101001010100000001 _
b10110 V
b10110 ^
b11111010011111000010111000100000 K
b11111010011111000010111000100000 [
b11011011101110010001010001001111 I
b11011011101110010001010001001111 Z
b1110101011110011001000000110001 H
b1110101011110011001000000110001 Y
b11011110101111100011000111101011 F
b11011110101111100011000111101011 X
b1110101011110011001000000110001 B
b111 T
b1000 2
b11000100110000001100000011000000110000001100000011000000110000 /
1"
1$
#46
0"
0$
#47
b1101011110101010001101110100001 a
b1101011110101010001101110100001 =
b1101111 c
b10111010111011011011101010000000 b
b11011111011101011101101101110101 `
b1111011011110010001010001111101 d
b11011011101110010001010001001111 g
b1110101011110011001000000110001 f
b10110000111001110110000010110010 e
b1101011110101010001101110100001 O
b1101001100000001001100011011000 W
b1101001100000001001100011011000 _
b111 V
b111 ^
b11011011101110010001010001001111 K
b11011011101110010001010001001111 [
b1110101011110011001000000110001 I
b1110101011110011001000000110001 Z
b10110000111001110110000010110010 H
b10110000111001110110000010110010 Y
b11111010011111000010111000100000 F
b11111010011111000010111000100000 X
b100000001011100111110011111010101100100110000011100111101100000011000110010000011110010111010101001111000101001011100111011011 &
b100000001011100111110011111010101100100110000011100111101100000011000110010000011110010111010101001111000101001011100111011011 <
b1000 T
b10110000111001110110000010110010 @
b10 ,
b1001 2
b11000100110000001100000011000000110000001100000011000000110000 /
1"
1$
#48
0"
0$
#49
b100100101000000000010101011111 a
b100100101000000000010101011111 =
b100110111110 c
b10111000110010101110000000000000 b
b10011011111010111000110010101110 `
b110100111011011000000010110000 d
b1110101011110011001000000110001 g
b10110000111001110110000010110010 f
b1101011110101010001101110100001 e
b10100001000110111101010101101011101100100110000011100111101100000011000110010000011110010111010101001111000101001011100111011011 &
b10100001000110111101010101101011101100100110000011100111101100000011000110010000011110010111010101001111000101001011100111011011 <
b100100101000000000010101011111 R
b10001011010001001111011110101111 W
b10001011010001001111011110101111 _
b1100 V
b1100 ^
b1110101011110011001000000110001 K
b1110101011110011001000000110001 [
b10110000111001110110000010110010 I
b10110000111001110110000010110010 Z
b1101011110101010001101110100001 H
b1101011110101010001101110100001 Y
b11011011101110010001010001001111 F
b11011011101110010001010001001111 X
b1101011110101010001101110100001 >
b1001 T
1"
1$
#50
0"
0$
#51
b10111111101001100101000111011111 a
b10111111101001100101000111011111 =
b100110010000000 c
b10011011000001100000000000000000 b
b100110010000000100110110000011 `
b10110000110001110110000110100001 d
b10110000111001110110000010110010 g
b1101011110101010001101110100001 f
b100100101000000000010101011111 e
b10111111101001100101000111011111 Q
b11111111111111110101101110110001 W
b11111111111111110101101110110001 _
b10001 V
b10001 ^
b10110000111001110110000010110010 K
b10110000111001110110000010110010 [
b1101011110101010001101110100001 I
b1101011110101010001101110100001 Z
b100100101000000000010101011111 H
b100100101000000000010101011111 Y
b1110101011110011001000000110001 F
b1110101011110011001000000110001 X
b10100001000110111101010101101011101100100110000011100111101100000011000110010000011110010111010101011111000001011010000000100100 &
b10100001000110111101010101101011101100100110000011100111101100000011000110010000011110010111010101011111000001011010000000100100 <
b1010 T
b100100101000000000010101011111 D
1"
1$
#52
0"
0$
#53
b10111011100011100001111100101111 a
b10111011100011100001111100101111 =
b1001111100110101010000 c
b11111011110000000000000000000000 b
b10011111001101010100001111101111 `
b1100100111100010000101101111111 d
b1101011110101010001101110100001 g
b100100101000000000010101011111 f
b10111111101001100101000111011111 e
b10100001000110111101010101101011101100100110000011100111101100001101111101010001101001101011111101011111000001011010000000100100 &
b10100001000110111101010101101011101100100110000011100111101100001101111101010001101001101011111101011111000001011010000000100100 <
b10111011100011100001111100101111 P
b10001001010111001101011110111110 W
b10001001010111001101011110111110 _
b10110 V
b10110 ^
b1101011110101010001101110100001 K
b1101011110101010001101110100001 [
b100100101000000000010101011111 I
b100100101000000000010101011111 Z
b10111111101001100101000111011111 H
b10111111101001100101000111011111 Y
b10110000111001110110000010110010 F
b10110000111001110110000010110010 X
b10111111101001100101000111011111 B
b1011 T
1"
1$
#54
0"
0$
#55
b1000001001011010011000001111010 a
b1000001001011010011000001111010 =
b1001011 c
b10000101100111110001000100000000 b
b10010111000010110011111000100010 `
b10111111101001100001000101011111 d
b100100101000000000010101011111 g
b10111111101001100101000111011111 f
b10111011100011100001111100101111 e
b1000001001011010011000001111010 O
b1101011100100000001000100100010 W
b1101011100100000001000100100010 _
b111 V
b111 ^
b100100101000000000010101011111 K
b100100101000000000010101011111 [
b10111111101001100101000111011111 I
b10111111101001100101000111011111 Z
b10111011100011100001111100101111 H
b10111011100011100001111100101111 Y
b1101011110101010001101110100001 F
b1101011110101010001101110100001 X
b10100001000110111101010101101011001011110001111110001110101110111101111101010001101001101011111101011111000001011010000000100100 &
b10100001000110111101010101101011001011110001111110001110101110111101111101010001101001101011111101011111000001011010000000100100 <
b1100 T
b10111011100011100001111100101111 @
1"
1$
#56
0"
0$
#57
b10101101101101110100111010010110 a
b10101101101101110100111010010110 =
b111000011100 c
b1101100100010100001000000000000 b
b11100001110001101100100010100001 `
b10111111100011100101000110101111 d
b10111111101001100101000111011111 g
b10111011100011100001111100101111 f
b1000001001011010011000001111010 e
b1111010001100000010110101000001001011110001111110001110101110111101111101010001101001101011111101011111000001011010000000100100 &
b1111010001100000010110101000001001011110001111110001110101110111101111101010001101001101011111101011111000001011010000000100100 <
b10101101101101110100111010010110 R
b11111101100110000111000110010011 W
b11111101100110000111000110010011 _
b1100 V
b1100 ^
b10111111101001100101000111011111 K
b10111111101001100101000111011111 [
b10111011100011100001111100101111 I
b10111011100011100001111100101111 Z
b1000001001011010011000001111010 H
b1000001001011010011000001111010 Y
b100100101000000000010101011111 F
b100100101000000000010101011111 X
b1000001001011010011000001111010 >
b1101 T
1"
1$
#58
0"
0$
#59
b11111011100010000100000100101111 a
b11111011100010000100000100101111 =
b1111001010011001 c
b1001101110100000000000000000000 b
b1111001010011001010011011101000 `
b10011001011010001000100111011 d
b10111011100011100001111100101111 g
b1000001001011010011000001111010 f
b10101101101101110100111010010110 e
b11111011100010000100000100101111 Q
b1000000 L
b1000000 \
b10100110011110010100001110001110 W
b10100110011110010100001110001110 _
b10001 V
b10001 ^
b10111011100011100001111100101111 K
b10111011100011100001111100101111 [
b1000001001011010011000001111010 I
b1000001001011010011000001111010 Z
b10101101101101110100111010010110 H
b10101101101101110100111010010110 Y
b10111111101001100101000111011111 F
b10111111101001100101000111011111 X
b1111010001100000010110101000001001011110001111110001110101110111101111101010001101001101011111110010110010011101011011110101101 &
b1111010001100000010110101000001001011110001111110001110101110111101111101010001101001101011111110010110010011101011011110101101 <
b1110 T
b10101101101101110100111010010110 D
1"
1$
#60
0"
0$
#61
b11100101001100111111101100010100 a
b11100101001100111111101100010100 =
b1010111011100111100101 c
b11101001100000000000000000000000 b
b10101110111001111001011110100110 `
b10101001101001010111000001010110 d
b1000001001011010011000001111010 g
b10101101101101110100111010010110 f
b11111011100010000100000100101111 e
b1111010001100000010110101000001001011110001111110001110101110110010111101000001100010001111101110010110010011101011011110101101 &
b1111010001100000010110101000001001011110001111110001110101110110010111101000001100010001111101110010110010011101011011110101101 <
b100 S
b11100101001100111111101100010100 P
b1001001101101000000100000100001 W
b1001001101101000000100000100001 _
b10110 V
b10110 ^
b0 L
b0 \
b1000001001011010011000001111010 K
b1000001001011010011000001111010 [
b10101101101101110100111010010110 I
b10101101101101110100111010010110 Z
b11111011100010000100000100101111 H
b11111011100010000100000100101111 Y
b10111011100011100001111100101111 F
b10111011100011100001111100101111 X
b11111011100010000100000100101111 B
b1111 T
1"
1$
#62
0"
0$
#63
b10111100000011100010010000111111 a
b10111100000011100010010000111111 =
b1011 c
b11010110110110100010100100100000 b
b1011110101101101101000101001001 `
b11110111001110110100101100111101 h
b10101101101101110100111010010110 k
b11111011100010000100000100101111 j
b11100101001100111111101100010100 i
b10111100000011100010010000111111 O
b110000001100000011000000110000 L
b110000001100000011000000110000 \
b1 U
b1 ]
b10100100100111101010101010011100100010000110010 G
b11110110000111100010010101100010 W
b11110110000111100010010101100010 _
b101 V
b101 ^
b10101101101101110100111010010110 K
b10101101101101110100111010010110 [
b11111011100010000100000100101111 I
b11111011100010000100000100101111 Z
b11100101001100111111101100010100 H
b11100101001100111111101100010100 Y
b1000001001011010011000001111010 F
b1000001001011010011000001111010 X
b1111010001100000010110101000001000101001111101100110011111001010010111101000001100010001111101110010110010011101011011110101101 &
b1111010001100000010110101000001000101001111101100110011111001010010111101000001100010001111101110010110010011101011011110101101 <
b100 J
b0 T
b11100101001100111111101100010100 @
1"
1$
#64
0"
0$
#65
b100011100001100100111010010011 a
b100011100001100100111010010011 =
b1010100 c
b1100111011110000010101000000000 b
b101010001100111011110000010101 `
b10111100001110111011101000111111 h
b11111011100010000100000100101111 k
b11100101001100111111101100010100 j
b10111100000011100010010000111111 i
b111111001001000000111010111100000101001111101100110011111001010010111101000001100010001111101110010110010011101011011110101101 &
b111111001001000000111010111100000101001111101100110011111001010010111101000001100010001111101110010110010011101011011110101101 <
b100011100001100100111010010011 R
b11000000010000001011001101000000 W
b11000000010000001011001101000000 _
b1001 V
b1001 ^
b0 L
b0 \
b11111011100010000100000100101111 K
b11111011100010000100000100101111 [
b11100101001100111111101100010100 I
b11100101001100111111101100010100 Z
b10111100000011100010010000111111 H
b10111100000011100010010000111111 Y
b10101101101101110100111010010110 F
b10101101101101110100111010010110 X
b1 U
b1 ]
b10111100000011100010010000111111 >
b1 T
1"
1$
#66
0"
0$
#67
b1011101111101010010010101010000 a
b1011101111101010010010101010000 =
b1011010111101 c
b111010011011101100000000000000 b
b1011010111101001110100110111011 `
b111001000011100100111000111011 h
b11100101001100111111101100010100 k
b10111100000011100010010000111111 j
b100011100001100100111010010011 i
b1011101111101010010010101010000 Q
b100110010111100101101001010001 W
b100110010111100101101001010001 _
b1110 V
b1110 ^
b11100101001100111111101100010100 K
b11100101001100111111101100010100 [
b10111100000011100010010000111111 I
b10111100000011100010010000111111 Z
b100011100001100100111010010011 H
b100011100001100100111010010011 Y
b11111011100010000100000100101111 F
b11111011100010000100000100101111 X
b1 U
b1 ]
b111111001001000000111010111100000101001111101100110011111001010010111101000001100010001111101110010011010011101000011000100011 &
b111111001001000000111010111100000101001111101100110011111001010010111101000001100010001111101110010011010011101000011000100011 <
b10 T
b100011100001100100111010010011 D
1"
1$
#68
0"
0$
#69
b1110101110101110000111101000110 a
b1110101110101110000111101000110 =
b11110100111110110 c
b10111111000000000000000000000 b
b11110100111110110000101111110 `
b11111100001000110111010010000 h
b10111100000011100010010000111111 k
b100011100001100100111010010011 j
b1011101111101010010010101010000 i
b111111001001000000111010111100000101001111101100110011111001010101000000100101111101010101110110010011010011101000011000100011 &
b111111001001000000111010111100000101001111101100110011111001010101000000100101111101010101110110010011010011101000011000100011 <
b1110101110101110000111101000110 P
b110000001100000011000000110000 L
b110000001100000011000000110000 \
b11101001101101101100011110101010 W
b11101001101101101100011110101010 _
b10100 V
b10100 ^
b10111100000011100010010000111111 K
b10111100000011100010010000111111 [
b100011100001100100111010010011 I
b100011100001100100111010010011 Z
b1011101111101010010010101010000 H
b1011101111101010010010101010000 Y
b11100101001100111111101100010100 F
b11100101001100111111101100010100 X
b1 U
b1 ]
b1011101111101010010010101010000 B
b11 T
1"
1$
#70
0"
0$
#71
b1111100011000111000101100001000 a
b1111100011000111000101100001000 =
b10 c
b110100011000111101111000000 b
b10000001101000110001111011110 `
b1111101111101110010111101000010 h
b100011100001100100111010010011 k
b1011101111101010010010101010000 j
b1110101110101110000111101000110 i
b1111100011000111000101100001000 O
b11010110001011110001000001011101 W
b11010110001011110001000001011101 _
b101 V
b101 ^
b0 L
b0 \
b100011100001100100111010010011 K
b100011100001100100111010010011 [
b1011101111101010010010101010000 I
b1011101111101010010010101010000 Z
b1110101110101110000111101000110 H
b1110101110101110000111101000110 Y
b10111100000011100010010000111111 F
b10111100000011100010010000111111 X
b1 U
b1 ]
b111111001001000000111010111100010001100000111111010111011101010101000000100101111101010101110110010011010011101000011000100011 &
b111111001001000000111010111100010001100000111111010111011101010101000000100101111101010101110110010011010011101000011000100011 <
b100 T
b1110101110101110000111101000110 @
1"
1$
#72
0"
0$
#73
b11010111001111110110010001001100 a
b11010111001111110110010001001100 =
b101000100 c
b1011010110110111101100000000000 b
b10100010001011010110110111101100 `
b1111100011000110000101100000110 h
b1011101111101010010010101010000 k
b1110101110101110000111101000110 j
b1111100011000111000101100001000 i
b1000100010110110001101111100010001100000111111010111011101010101000000100101111101010101110110010011010011101000011000100011 &
b1000100010110110001101111100010001100000111111010111011101010101000000100101111101010101110110010011010011101000011000100011 <
b11010111001111110110010001001100 R
b10010001000001010001010011 W
b10010001000001010001010011 _
b1001 V
b1001 ^
b1011101111101010010010101010000 K
b1011101111101010010010101010000 [
b1110101110101110000111101000110 I
b1110101110101110000111101000110 Z
b1111100011000111000101100001000 H
b1111100011000111000101100001000 Y
b100011100001100100111010010011 F
b100011100001100100111010010011 X
b1 U
b1 ]
b1111100011000111000101100001000 >
b101 T
1"
1$
#74
0"
0$
#75
b1111011010001101100100100111111 a
b1111011010001101100100100111111 =
b10010011110011 c
b10100100000001110100000000000000 b
b10010011110011101001000000011101 `
b1011101001101111000010001001100 h
b1110101110101110000111101000110 k
b1111100011000111000101100001000 j
b11010111001111110110010001001100 i
b1111011010001101100100100111111 Q
b11011000101000011110011010000001 W
b11011000101000011110011010000001 _
b1110 V
b1110 ^
b1110101110101110000111101000110 K
b1110101110101110000111101000110 [
b1111100011000111000101100001000 I
b1111100011000111000101100001000 Z
b11010111001111110110010001001100 H
b11010111001111110110010001001100 Y
b1011101111101010010010101010000 F
b1011101111101010010010101010000 X
b1 U
b1 ]
b1000100010110110001101111100010001100000111111010111011101010101000000100101111101010101110101001100011001000011111111010111 &
b1000100010110110001101111100010001100000111111010111011101010101000000100101111101010101110101001100011001000011111111010111 <
b110 T
b11010111001111110110010001001100 D
1"
1$
#76
0"
0$
#77
b111011000101100111011110 a
b111011000101100111011110 =
b1011001000010011111 c
b10000101101000000000000000000000 b
b1011001000010011111100001011010 `
b11111011010111101110110101001100 h
b1111100011000111000101100001000 k
b11010111001111110110010001001100 j
b1111011010001101100100100111111 i
b1000100010110110001101111100010001100000111111010111011101010011111111001001010001100111101101001100011001000011111111010111 &
b1000100010110110001101111100010001100000111111010111011101010011111111001001010001100111101101001100011001000011111111010111 <
b111011000101100111011110 P
b11100111110100111111101111001000 W
b11100111110100111111101111001000 _
b10100 V
b10100 ^
b1111100011000111000101100001000 K
b1111100011000111000101100001000 [
b11010111001111110110010001001100 I
b11010111001111110110010001001100 Z
b1111011010001101100100100111111 H
b1111011010001101100100100111111 Y
b1110101110101110000111101000110 F
b1110101110101110000111101000110 X
b1 U
b1 ]
b1111011010001101100100100111111 B
b111 T
1"
1$
#78
0"
0$
#79
b11010111001100001010011110010110 a
b11010111001100001010011110010110 =
b11000 c
b11010110010001000100110110100000 b
b11000110101100100010001001101101 `
b101000011011001100100101111111 h
b11010111001111110110010001001100 k
b1111011010001101100100100111111 j
b111011000101100111011110 i
b11010111001100001010011110010110 O
b100001111000011100110111100110 W
b100001111000011100110111100110 _
b101 V
b101 ^
b11010111001111110110010001001100 K
b11010111001111110110010001001100 [
b1111011010001101100100100111111 I
b1111011010001101100100100111111 Z
b111011000101100111011110 H
b111011000101100111011110 Y
b1111100011000111000101100001000 F
b1111100011000111000101100001000 X
b1 U
b1 ]
b1000100010110110001101111100110111100101100111101100000000000011111111001001010001100111101101001100011001000011111111010111 &
b1000100010110110001101111100110111100101100111101100000000000011111111001001010001100111101101001100011001000011111111010111 <
b1000 T
b111011000101100111011110 @
1"
1$
#80
0"
0$
